we could go anywhere - Hands-on Exercise 1a: Geospatial Data Wrangling
…
Datasets such as listing of Inside AirBnB is called aspatial data, because it is not a geospatial data but among the data fields, there are two fields that capture the x- and y-coordinates of the data points. In this section, we will learn how to import an aspatial data into R environment, save it as a tibble data frame, and convert it into a simple feature data frame.

8.1 Importing aspatial data

Since listings data set is in csv file format, we will use read_csv() of readr package to import listing.csv as shown the code chunk below. The output R object is called listings and it is a tibble data frame.

listings <- read_csv("data/aspatial/listings.csv")

After importing the data file, we should examine if data file has been imported correctly. We can use list() instead of glimpse().

list(listings)

[[1]]
# A tibble: 3,540 × 18
       id name      host_id host_name neighbourhood_group neighbourhood latitude
    <dbl> <chr>       <dbl> <chr>     <chr>               <chr>            <dbl>
 1  71609 Ensuite …  367042 Belinda   East Region         Tampines          1.35
 2  71896 B&B  Roo…  367042 Belinda   East Region         Tampines          1.35
 3  71903 Room 2-n…  367042 Belinda   East Region         Tampines          1.35
 4 275343 10min wa… 1439258 Kay       Central Region      Bukit Merah       1.29
 5 275344 15 mins … 1439258 Kay       Central Region      Bukit Merah       1.29
 6 289234 Booking …  367042 Belinda   East Region         Tampines          1.34
 7 294281 5 mins w… 1521514 Elizabeth Central Region      Newton            1.31
 8 324945 Comforta… 1439258 Kay       Central Region      Bukit Merah       1.29
 9 330095 Relaxing… 1439258 Kay       Central Region      Bukit Merah       1.29
10 344803 Budget s…  367042 Belinda   East Region         Tampines          1.35
# ℹ 3,530 more rows
# ℹ 11 more variables: longitude <dbl>, room_type <chr>, price <dbl>,
#   minimum_nights <dbl>, number_of_reviews <dbl>, last_review <date>,
#   reviews_per_month <dbl>, calculated_host_listings_count <dbl>,
#   availability_365 <dbl>, number_of_reviews_ltm <dbl>, license <chr>
…
