we could go anywhere - Hands-on Exercise 8: Geographically Weighted Predictive Models
…
List of primary schools, ordered / ranked in by popularity

Format: CSV

mdata <- read_rds("data/aspatial/mdata.rds")

mdata

Simple feature collection with 15901 features and 17 fields
Geometry type: POINT
Dimension:     XY
Bounding box:  xmin: 11597.31 ymin: 28217.39 xmax: 42623.63 ymax: 48741.06
Projected CRS: SVY21 / Singapore TM
# A tibble: 15,901 × 18
   resale_price floor_area_sqm storey_order remaining_lease_mths PROX_CBD
          <dbl>          <dbl>        <int>                <dbl>    <dbl>
 1       330000             92            1                  684     8.82
 2       360000             91            3                  738     9.84
 3       370000             92            1                  733     9.56
 4       375000             99            2                  700     9.61
 5       380000             92            2                  715     8.35
 6       380000             92            4                  732     9.49
 7       385000             92            3                  706     8.96
 8       395000             92            2                  745     9.81
 9       395000             93            4                  731    10.3 
10       395000             91            3                  725    10.4 
# ℹ 15,891 more rows
# ℹ 13 more variables: PROX_ELDERLYCARE <dbl>, PROX_HAWKER <dbl>,
#   PROX_MRT <dbl>, PROX_PARK <dbl>, PROX_GOOD_PRISCH <dbl>, PROX_MALL <dbl>,
#   PROX_CHAS <dbl>, PROX_SUPERMARKET <dbl>, WITHIN_350M_KINDERGARTEN <int>,
#   WITHIN_350M_CHILDCARE <int>, WITHIN_350M_BUS <int>,
#   WITHIN_1KM_PRISCH <int>, geometry <POINT [m]>
…
